module gitlab.com/commonground/developer.overheid.nl

require (
	github.com/RoaringBitmap/roaring v0.4.21 // indirect
	github.com/blevesearch/bleve v0.8.1
	github.com/blevesearch/blevex v0.0.0-20190916190636-152f0fe5c040 // indirect
	github.com/blevesearch/go-porterstemmer v1.0.2 // indirect
	github.com/blevesearch/segment v0.0.0-20160915185041-762005e7a34f // indirect
	github.com/blevesearch/snowballstem v0.0.0-20180110192139-26b06a2c243d // indirect
	github.com/couchbase/vellum v0.0.0-20190829182332-ef2e028c01fd // indirect
	github.com/cznic/b v0.0.0-20181122101859-a26611c4d92d // indirect
	github.com/cznic/mathutil v0.0.0-20181122101859-297441e03548 // indirect
	github.com/cznic/strutil v0.0.0-20181122101858-275e90344537 // indirect
	github.com/etcd-io/bbolt v1.3.3 // indirect
	github.com/facebookgo/ensure v0.0.0-20160127193407-b4ab57deab51 // indirect
	github.com/facebookgo/stack v0.0.0-20160209184415-751773369052 // indirect
	github.com/facebookgo/subset v0.0.0-20150612182917-8dac2c3c4870 // indirect
	github.com/glycerine/go-unsnap-stream v0.0.0-20190901134440-81cf024a9e0a // indirect
	github.com/go-chi/chi v4.0.2+incompatible
	github.com/golang/protobuf v1.3.2 // indirect
	github.com/jessevdk/go-flags v1.4.0
	github.com/jmhodges/levigo v1.0.0 // indirect
	github.com/pkg/errors v0.8.1
	github.com/remyoudompheng/bigfft v0.0.0-20190512091148-babf20351dd7 // indirect
	github.com/steveyen/gtreap v0.0.0-20150807155958-0abe01ef9be2 // indirect
	github.com/stretchr/testify v1.4.0
	github.com/syndtr/goleveldb v1.0.0 // indirect
	github.com/tecbot/gorocksdb v0.0.0-20190930194452-65a88f08537a // indirect
	go.etcd.io/bbolt v1.3.3 // indirect
	go.uber.org/atomic v1.4.0 // indirect
	go.uber.org/multierr v1.2.0 // indirect
	go.uber.org/zap v1.10.0
	golang.org/x/net v0.0.0-20191007182048-72f939374954 // indirect
	golang.org/x/sys v0.0.0-20191010194322-b09406accb47 // indirect
)

go 1.13
