{
    "description": "De referentieimplementatie van het documentregistratiecomponent.",
    "organization_name": "VNG Realisatie",
    "service_name": "Documentregistratiecomponent (DRC)",
    "api_url": "https://ref.tst.vng.cloud/drc/api/v1/",
    "api_type": "REST/JSON",
    "specification_url": "https://ref.tst.vng.cloud/drc/api/v1/schema/",
    "documentation_url": "https://ref.tst.vng.cloud/drc/",
    "tags": ["zgw", "drc", "zaakgericht werken", "documentregistratiecomponent"],
    "is_reference_implementation": true,
    "contact": {
        "email": "standaarden.ondersteuning@vng.nl"
    },
    "terms_of_use": {
        "government_only": false,
        "pay_per_use": false
    }
}
